src/fft_256/sim/fft_256_simple_waveform.vcd
$date
	Fri Aug  8 09:55:50 2025
$end
$version
	Icarus Verilog
$end
$timescale
	1ps
$end
$scope module fft_256_simple_tb $end
$var wire 1 ! fft_done $end
$var wire 1 " fft_busy $end
$var wire 1 # data_out_valid $end
$var wire 16 $ data_out_real [15:0] $end
$var wire 16 % data_out_imag [15:0] $end
$var wire 8 & data_out_addr [7:0] $end
$var parameter 32 ' CLK_PERIOD $end
$var parameter 32 ( FFT_SIZE $end
$var reg 1 ) clk $end
$var reg 8 * data_in_addr [7:0] $end
$var reg 16 + data_in_imag [15:0] $end
$var reg 16 , data_in_real [15:0] $end
$var reg 1 - data_in_valid $end
$var reg 1 . rst_n $end
$var reg 1 / start $end
$var reg 3 0 state_display [2:0] $end
$var integer 32 1 error_count [31:0] $end
$var integer 32 2 i [31:0] $end
$scope module dut $end
$var wire 1 ) clk $end
$var wire 8 3 data_in_addr [7:0] $end
$var wire 16 4 data_in_imag [15:0] $end
$var wire 16 5 data_in_real [15:0] $end
$var wire 1 - data_in_valid $end
$var wire 1 . rst_n $end
$var wire 1 / start $end
$var parameter 32 6 DATA_WIDTH $end
$var parameter 32 7 FFT_SIZE $end
$var reg 3 8 current_state [2:0] $end
$var reg 8 9 data_out_addr [7:0] $end
$var reg 16 : data_out_imag [15:0] $end
$var reg 16 ; data_out_real [15:0] $end
$var reg 1 # data_out_valid $end
$var reg 1 " fft_busy $end
$var reg 1 ! fft_done $end
$var reg 8 < input_count [7:0] $end
$var reg 3 = next_state [2:0] $end
$var reg 8 > output_count [7:0] $end
$var reg 16 ? process_count [15:0] $end
$scope begin $unm_blk_1 $end
$var real 1 @ angle $end
$var integer 32 A i [31:0] $end
$var real 1 B pi $end
$upscope $end
$scope begin $unm_blk_20 $end
$var reg 32 C imag_sum [31:0] $end
$var reg 8 D k [7:0] $end
$var reg 8 E n [7:0] $end
$var reg 32 F real_sum [31:0] $end
$upscope $end
$upscope $end
$scope task collect_results $end
$upscope $end
$scope task display_results $end
$var real 1 G magnitude $end
$upscope $end
$scope task generate_test_data $end
$upscope $end
$scope task send_test_data $end
$upscope $end
$upscope $end
$enddefinitions $end
$comment Show the parameter values. $end
$dumpall
b100000000 7
b10000 6
b100000000 (
b1010 '
$end
#0
$dumpvars
r0 G
bx F
bx E
bx D
bx C
r3.14159265359 B
b100000000 A
r-6.258641614573828 @
b0 ?
b0 >
b0 =
b0 <
b0 ;
b0 :
b0 9
b0 8
b0 5
b0 4
b0 3
bx 2
b0 1
b0 0
0/
0.
0-
b0 ,
b0 +
b0 *
0)
b0 &
b0 %
b0 $
0#
0"
0!
$end
#5000
1)
#10000
0)
#15000
1)
#20000
0)
#25000
1)
#30000
0)
#35000
1)
#40000
0)
#45000
1)
#50000
0)
#55000
1)
#60000
0)
#65000
1)
#70000
0)
#75000
1)
#80000
0)
#85000
1)
#90000
0)
#95000
1)
#100000
0)
1.
#105000
1)
#110000
0)
#115000
1)
#120000
0)
#125000
1)
#130000
0)
#135000
1)
#140000
0)
#145000
1)
#150000
0)
b100000000 2
#155000
b1 =
1/
1)
#160000
0)
#165000
b1 0
b1 8
b1 =
b0 2
0/
1)
#170000
0)
#175000
b1 <
1"
b1 2
1-
b11001011001000 ,
b11001011001000 5
1)
#180000
0)
#185000
b10 <
b10 2
b10010001111 +
b10010001111 4
b11001001001101 ,
b11001001001101 5
b1 *
b1 3
1)
#190000
0)
#195000
b11 <
b11 2
b100011100101 +
b100011100101 4
b11000011100101 ,
b11000011100101 5
b10 *
b10 3
1)
#200000
0)
#205000
b100 <
b100 2
b110011001010 +
b110011001010 4
b10111010100101 ,
b10111010100101 5
b11 *
b11 3
1)
#210000
0)
#215000
b101 <
b101 2
b1000000001101 +
b1000000001101 4
b10101110101111 ,
b10101110101111 5
b100 *
b100 3
1)
#220000
0)
#225000
b110 <
b110 2
b1001010001001 +
b1001010001001 4
b10100000101110 ,
b10100000101110 5
b101 *
b101 3
1)
#230000
0)
#235000
b111 <
b111 2
b1010000100001 +
b1010000100001 4
b10010001011001 ,
b10010001011001 5
b110 *
b110 3
1)
#240000
0)
#245000
b1000 <
b1000 2
b1010011001011 +
b1010011001011 4
b10000001101000 ,
b10000001101000 5
b111 *
b111 3
1)
#250000
0)
#255000
b1001 <
b1001 2
b1010010000111 +
b1010010000111 4
b1110010010100 ,
b1110010010100 5
b1000 *
b1000 3
1)
#260000
0)
#265000
b1010 <
b1010 2
b1001101100100 +
b1001101100100 4
b1100100010111 ,
b1100100010111 5
b1001 *
b1001 3
1)
#270000
0)
#275000
b1011 <
b1011 2
b1000110000000 +
b1000110000000 4
b1011000100100 ,
b1011000100100 5
b1010 *
b1010 3
1)
#280000
0)
#285000
b1100 <
b1100 2
b111100000011 +
b111100000011 4
b1001111100111 ,
b1001111100111 5
b1011 *
b1011 3
1)
#290000
0)
#295000
b1101 <
b1101 2
b110000011110 +
b110000011110 4
b1001001111100 ,
b1001001111100 5
b1100 *
b1100 3
1)
#300000
0)
#305000
b1110 <
b1110 2
b100100001001 +
b100100001001 4
b1000111111001 ,
b1000111111001 5
b1101 *
b1101 3
1)
#310000
0)
#315000
b1111 <
b1111 2
b10111111110 +
b10111111110 4
b1001001100001 ,
b1001001100001 5
b1110 *
b1110 3
1)
#320000
0)
#325000
b10000 <
b10000 2
b1100110111 +
b1100110111 4
b1001110101001 ,
b1001110101001 5
b1111 *
b1111 3
1)
#330000
0)
#335000
b10001 <
b10001 2
b11101001 +
b11101001 4
b1010110111011 ,
b1010110111011 5
b10000 *
b10000 3
1)
#340000
0)
#345000
b10010 <
b10010 2
b1111111101000011 +
b1111111101000011 4
b1100001110001 ,
b1100001110001 5
b10001 *
b10001 3
1)
#350000
0)
#355000
b10011 <
b10011 2
b1111111001101001 +
b1111111001101001 4
b1101110011110 ,
b1101110011110 5
b10010 *
b10010 3
1)
#360000
0)
#365000
b10100 <
b10100 2
b1111111001110001 +
b1111111001110001 4
b1111100001101 ,
b1111100001101 5
b10011 *
b10011 3
1)
#370000
0)
#375000
b10101 <
b10101 2
b1111111101101000 +
b1111111101101000 4
b10001010000011 ,
b10001010000011 5
b10100 *
b10100 3
1)
#380000
0)
#385000
b10110 <
b10110 2
b101001000 +
b101001000 4
b10010111000110 ,
b10010111000110 5
b10101 *
b10101 3
1)
#390000
0)
#395000
b10111 <
b10111 2
b1111111100 +
b1111111100 4
b10100010011110 ,
b10100010011110 5
b10110 *
b10110 3
1)
#400000
0)
#405000
b11000 <
b11000 2
b11101101001 +
b11101101001 4
b10101011011010 ,
b10101011011010 5
b10111 *
b10111 3
1)
#410000
0)
#415000
b11001 <
b11001 2
b101101100010 +
b101101100010 4
b10110001010010 ,
b10110001010010 5
b11000 *
b11000 3
1)
#420000
0)
#425000
b11010 <
b11010 2
b111110110100 +
b111110110100 4
b10110011101000 ,
b10110011101000 5
b11001 *
b11001 3
1)
#430000
0)
#435000
b11011 <
b11011 2
b1010000100101 +
b1010000100101 4
b10110010001101 ,
b10110010001101 5
b11010 *
b11010 3
1)
#440000
0)
#445000
b11100 <
b11100 2
b1100001111100 +
b1100001111100 4
b10101101000000 ,
b10101101000000 5
b11011 *
b11011 3
1)
#450000
0)
#455000
b11101 <
b11101 2
b1110010000001 +
b1110010000001 4
b10100100001101 ,
b10100100001101 5
b11100 *
b11100 3
1)
#460000
0)
#465000
b11110 <
b11110 2
b1111111111100 +
b1111111111100 4
b10011000001111 ,
b10011000001111 5
b11101 *
b11101 3
1)
#470000
0)
#475000
b11111 <
b11111 2
b10001011000011 +
b10001011000011 4
b10001001101100 ,
b10001001101100 5
b11110 *
b11110 3
1)
#480000
0)
#485000
b100000 <
b100000 2
b10010010110100 +
b10010010110100 4
b1111001010100 ,
b1111001010100 5
b11111 *
b11111 3
1)
#490000
0)
#495000
b100001 <
b100001 2
b10010110110111 +
b10010110110111 4
b1101000000000 ,
b1101000000000 5
b100000 *
b100000 3
1)
#500000
0)
#505000
b100010 <
b100010 2
b10010111001001 +
b10010111001001 4
b1010110101001 ,
b1010110101001 5
b100001 *
b100001 3
1)
#510000
0)
#515000
b100011 <
b100011 2
b10010011101110 +
b10010011101110 4
b1000110000111 ,
b1000110000111 5
b100010 *
b100010 3
1)
#520000
0)
#525000
b100100 <
b100100 2
b10001100111100 +
b10001100111100 4
b110111010011 ,
b110111010011 5
b100011 *
b100011 3
1)
#530000
0)
#535000
b100101 <
b100101 2
b10000011010110 +
b10000011010110 4
b101010111110 ,
b101010111110 5
b100100 *
b100100 3
1)
#540000
0)
#545000
b100110 <
b100110 2
b1110111100101 +
b1110111100101 4
b100001101011 ,
b100001101011 5
b100101 *
b100101 3
1)
#550000
0)
#555000
b100111 <
b100111 2
b1101010100001 +
b1101010100001 4
b11011111001 ,
b11011111001 5
b100110 *
b100110 3
1)
#560000
0)
#565000
b101000 <
b101000 2
b1011101000010 +
b1011101000010 4
b11001110010 ,
b11001110010 5
b100111 *
b100111 3
1)
#570000
0)
#575000
b101001 <
b101001 2
b1010000000001 +
b1010000000001 4
b11011010101 ,
b11011010101 5
b101000 *
b101000 3
1)
#580000
0)
#585000
b101010 <
b101010 2
b1000100011000 +
b1000100011000 4
b100000010011 ,
b100000010011 5
b101001 *
b101001 3
1)
#590000
0)
#595000
b101011 <
b101011 2
b111010111001 +
b111010111001 4
b101000001111 ,
b101000001111 5
b101010 *
b101010 3
1)
#600000
0)
#605000
b101100 <
b101100 2
b110100010001 +
b110100010001 4
b110010100001 ,
b110010100001 5
b101011 *
b101011 3
1)
#610000
0)
#615000
b101101 <
b101101 2
b110000111100 +
b110000111100 4
b111110010111 ,
b111110010111 5
b101100 *
b101100 3
1)
#620000
0)
#625000
b101110 <
b101110 2
b110001001110 +
b110001001110 4
b1001010111000 ,
b1001010111000 5
b101101 *
b101101 3
1)
#630000
0)
#635000
b101111 <
b101111 2
b110101001100 +
b110101001100 4
b1010111001101 ,
b1010111001101 5
b101110 *
b101110 3
1)
#640000
0)
#645000
b110000 <
b110000 2
b111100101011 +
b111100101011 4
b1100010011001 ,
b1100010011001 5
b101111 *
b101111 3
1)
#650000
0)
#655000
b110001 <
b110001 2
b1000111010011 +
b1000111010011 4
b1101011101001 ,
b1101011101001 5
b110000 *
b110000 3
1)
#660000
0)
#665000
b110010 <
b110010 2
b1010100011111 +
b1010100011111 4
b1110010001101 ,
b1110010001101 5
b110001 *
b110001 3
1)
#670000
0)
#675000
b110011 <
b110011 2
b1100011100011 +
b1100011100011 4
b1110101100010 ,
b1110101100010 5
b110010 *
b110010 3
1)
#680000
0)
#685000
b110100 <
b110100 2
b1110011101000 +
b1110011101000 4
b1110101010000 ,
b1110101010000 5
b110011 *
b110011 3
1)
#690000
0)
#695000
b110101 <
b110101 2
b10000011110011 +
b10000011110011 4
b1110001001101 ,
b1110001001101 5
b110100 *
b110100 3
1)
#700000
0)
#705000
b110110 <
b110110 2
b10010011001100 +
b10010011001100 4
b1101001011100 ,
b1101001011100 5
b110101 *
b110101 3
1)
#710000
0)
#715000
b110111 <
b110111 2
b10100000111001 +
b10100000111001 4
b1011110010011 ,
b1011110010011 5
b110110 *
b110110 3
1)
#720000
0)
#725000
b111000 <
b111000 2
b10101100001001 +
b10101100001001 4
b1010000001110 ,
b1010000001110 5
b110111 *
b110111 3
1)
#730000
0)
#735000
b111001 <
b111001 2
b10110100010101 +
b10110100010101 4
b111111111010 ,
b111111111010 5
b111000 *
b111000 3
1)
#740000
0)
#745000
b111010 <
b111010 2
b10111000111110 +
b10111000111110 4
b101110001001 ,
b101110001001 5
b111001 *
b111001 3
1)
#750000
0)
#755000
b111011 <
b111011 2
b10111001110101 +
b10111001110101 4
b11011110101 ,
b11011110101 5
b111010 *
b111010 3
1)
#760000
0)
#765000
b111100 <
b111100 2
b10110110111001 +
b10110110111001 4
b1001111000 ,
b1001111000 5
b111011 *
b111011 3
1)
#770000
0)
#775000
b111101 <
b111101 2
b10110000010110 +
b10110000010110 4
b1111111001001010 ,
b1111111001001010 5
b111100 *
b111100 3
1)
#780000
0)
#785000
b111110 <
b111110 2
b10100110101000 +
b10100110101000 4
b1111101010100001 ,
b1111101010100001 5
b111101 *
b111101 3
1)
#790000
0)
#795000
b111111 <
b111111 2
b10011010010011 +
b10011010010011 4
b1111011110101001 ,
b1111011110101001 5
b111110 *
b111110 3
1)
#800000
0)
#805000
b1000000 <
b1000000 2
b10001100001000 +
b10001100001000 4
b1111010110000100 ,
b1111010110000100 5
b111111 *
b111111 3
1)
#810000
0)
#815000
b1000001 <
b1000001 2
b1111100111111 +
b1111100111111 4
b1111010001001001 ,
b1111010001001001 5
b1000000 *
b1000000 3
1)
#820000
0)
#825000
b1000010 <
b1000010 2
b1101101110010 +
b1101101110010 4
b1111001111111100 ,
b1111001111111100 5
b1000001 *
b1000001 3
1)
#830000
0)
#835000
b1000011 <
b1000011 2
b1011111011001 +
b1011111011001 4
b1111010010011001 ,
b1111010010011001 5
b1000010 *
b1000010 3
1)
#840000
0)
#845000
b1000100 <
b1000100 2
b1010010101100 +
b1010010101100 4
b1111011000001001 ,
b1111011000001001 5
b1000011 *
b1000011 3
1)
#850000
0)
#855000
b1000101 <
b1000101 2
b1001000011100 +
b1001000011100 4
b1111100000101010 ,
b1111100000101010 5
b1000100 *
b1000100 3
1)
#860000
0)
#865000
b1000110 <
b1000110 2
b1000001001101 +
b1000001001101 4
b1111101011010010 ,
b1111101011010010 5
b1000101 *
b1000101 3
1)
#870000
0)
#875000
b1000111 <
b1000111 2
b111101011101 +
b111101011101 4
b1111110111001011 ,
b1111110111001011 5
b1000110 *
b1000110 3
1)
#880000
0)
#885000
b1001000 <
b1001000 2
b111101010110 +
b111101010110 4
b11011011 ,
b11011011 5
b1000111 *
b1000111 3
1)
#890000
0)
#895000
b1001001 <
b1001001 2
b1000000110111 +
b1000000110111 4
b1111001010 ,
b1111001010 5
b1001000 *
b1001000 3
1)
#900000
0)
#905000
b1001010 <
b1001010 2
b1000111110001 +
b1000111110001 4
b11001011110 ,
b11001011110 5
b1001001 *
b1001001 3
1)
#910000
0)
#915000
b1001011 <
b1001011 2
b1010001100111 +
b1010001100111 4
b100001100101 ,
b100001100101 5
b1001010 *
b1001010 3
1)
#920000
0)
#925000
b1001100 <
b1001100 2
b1011101110000 +
b1011101110000 4
b100110110010 ,
b100110110010 5
b1001011 *
b1001011 3
1)
#930000
0)
#935000
b1001101 <
b1001101 2
b1101011011011 +
b1101011011011 4
b101000101001 ,
b101000101001 5
b1001100 *
b1001100 3
1)
#940000
0)
#945000
b1001110 <
b1001110 2
b1111001110000 +
b1111001110000 4
b100110110110 ,
b100110110110 5
b1001101 *
b1001101 3
1)
#950000
0)
#955000
b1001111 <
b1001111 2
b10000111110101 +
b10000111110101 4
b100001010100 ,
b100001010100 5
b1001110 *
b1001110 3
1)
#960000
0)
#965000
b1010000 <
b1010000 2
b10010100101111 +
b10010100101111 4
b11000001111 ,
b11000001111 5
b1001111 *
b1001111 3
1)
#970000
0)
#975000
b1010001 <
b1010001 2
b10011111101011 +
b10011111101011 4
b1011111111 ,
b1011111111 5
b1010000 *
b1010000 3
1)
#980000
0)
#985000
b1010010 <
b1010010 2
b10100111110111 +
b10100111110111 4
b1111111101000111 ,
b1111111101000111 5
b1010001 *
b1010001 3
1)
#990000
0)
#995000
b1010011 <
b1010011 2
b10101100110010 +
b10101100110010 4
b1111101100010101 ,
b1111101100010101 5
b1010010 *
b1010010 3
1)
#1000000
0)
#1005000
b1010100 <
b1010100 2
b10101110000100 +
b10101110000100 4
b1111011010100000 ,
b1111011010100000 5
b1010011 *
b1010011 3
1)
#1010000
0)
#1015000
b1010101 <
b1010101 2
b10101011100010 +
b10101011100010 4
b1111001000100001 ,
b1111001000100001 5
b1010100 *
b1010100 3
1)
#1020000
0)
#1025000
b1010110 <
b1010110 2
b10100101001111 +
b10100101001111 4
b1110110111010011 ,
b1110110111010011 5
b1010101 *
b1010101 3
1)
#1030000
0)
#1035000
b1010111 <
b1010111 2
b10011011100001 +
b10011011100001 4
b1110100111101111 ,
b1110100111101111 5
b1010110 *
b1010110 3
1)
#1040000
0)
#1045000
b1011000 <
b1011000 2
b10001110110100 +
b10001110110100 4
b1110011010100101 ,
b1110011010100101 5
b1010111 *
b1010111 3
1)
#1050000
0)
#1055000
b1011001 <
b1011001 2
b1111111110101 +
b1111111110101 4
b1110010000011101 ,
b1110010000011101 5
b1011000 *
b1011000 3
1)
#1060000
0)
#1065000
b1011010 <
b1011010 2
b1101111010110 +
b1101111010110 4
b1110001001110110 ,
b1110001001110110 5
b1011001 *
b1011001 3
1)
#1070000
0)
#1075000
b1011011 <
b1011011 2
b1011110010010 +
b1011110010010 4
b1110000110111111 ,
b1110000110111111 5
b1011010 *
b1011010 3
1)
#1080000
0)
#1085000
b1011100 <
b1011100 2
b1001101011111 +
b1001101011111 4
b1110000111111001 ,
b1110000111111001 5
b1011011 *
b1011011 3
1)
#1090000
0)
#1095000
b1011101 <
b1011101 2
b111101111010 +
b111101111010 4
b1110001100011000 ,
b1110001100011000 5
b1011100 *
b1011100 3
1)
#1100000
0)
#1105000
b1011110 <
b1011110 2
b110000010110 +
b110000010110 4
b1110010100000001 ,
b1110010100000001 5
b1011101 *
b1011101 3
1)
#1110000
0)
#1115000
b1011111 <
b1011111 2
b100101100000 +
b100101100000 4
b1110011110001111 ,
b1110011110001111 5
b1011110 *
b1011110 3
1)
#1120000
0)
#1125000
b1100000 <
b1100000 2
b11101111001 +
b11101111001 4
b1110101010010001 ,
b1110101010010001 5
b1011111 *
b1011111 3
1)
#1130000
0)
#1135000
b1100001 <
b1100001 2
b11001111001 +
b11001111001 4
b1110110111010000 ,
b1110110111010000 5
b1100000 *
b1100000 3
1)
#1140000
0)
#1145000
b1100010 <
b1100010 2
b11001100100 +
b11001100100 4
b1111000100010010 ,
b1111000100010010 5
b1100001 *
b1100001 3
1)
#1150000
0)
#1155000
b1100011 <
b1100011 2
b11100110101 +
b11100110101 4
b1111010000011110 ,
b1111010000011110 5
b1100010 *
b1100010 3
1)
#1160000
0)
#1165000
b1100100 <
b1100100 2
b100011010110 +
b100011010110 4
b1111011010111101 ,
b1111011010111101 5
b1100011 *
b1100011 3
1)
#1170000
0)
#1175000
b1100101 <
b1100101 2
b101100100101 +
b101100100101 4
b1111100010111101 ,
b1111100010111101 5
b1100100 *
b1100100 3
1)
#1180000
0)
#1185000
b1100110 <
b1100110 2
b110111110110 +
b110111110110 4
b1111100111111100 ,
b1111100111111100 5
b1100101 *
b1100101 3
1)
#1190000
0)
#1195000
b1100111 <
b1100111 2
b1000100010101 +
b1000100010101 4
b1111101001011011 ,
b1111101001011011 5
b1100110 *
b1100110 3
1)
#1200000
0)
#1205000
b1101000 <
b1101000 2
b1010001001000 +
b1010001001000 4
b1111100111010000 ,
b1111100111010000 5
b1100111 *
b1100111 3
1)
#1210000
0)
#1215000
b1101001 <
b1101001 2
b1011101010110 +
b1011101010110 4
b1111100001011100 ,
b1111100001011100 5
b1101000 *
b1101000 3
1)
#1220000
0)
#1225000
b1101010 <
b1101010 2
b1101000000101 +
b1101000000101 4
b1111011000001110 ,
b1111011000001110 5
b1101001 *
b1101001 3
1)
#1230000
0)
#1235000
b1101011 <
b1101011 2
b1110000100011 +
b1110000100011 4
b1111001100000100 ,
b1111001100000100 5
b1101010 *
b1101010 3
1)
#1240000
0)
#1245000
b1101100 <
b1101100 2
b1110110000110 +
b1110110000110 4
b1110111101100110 ,
b1110111101100110 5
b1101011 *
b1101011 3
1)
#1250000
0)
#1255000
b1101101 <
b1101101 2
b1111000001110 +
b1111000001110 4
b1110101101100101 ,
b1110101101100101 5
b1101100 *
b1101100 3
1)
#1260000
0)
#1265000
b1101110 <
b1101110 2
b1110110100111 +
b1110110100111 4
b1110011100111011 ,
b1110011100111011 5
b1101101 *
b1101101 3
1)
#1270000
0)
#1275000
b1101111 <
b1101111 2
b1110001001111 +
b1110001001111 4
b1110001100100000 ,
b1110001100100000 5
b1101110 *
b1101110 3
1)
#1280000
0)
#1285000
b1110000 <
b1110000 2
b1101000001111 +
b1101000001111 4
b1101111101001111 ,
b1101111101001111 5
b1101111 *
b1101111 3
1)
#1290000
0)
#1295000
b1110001 <
b1110001 2
b1011100000001 +
b1011100000001 4
b1101101111111101 ,
b1101101111111101 5
b1110000 *
b1110000 3
1)
#1300000
0)
#1305000
b1110010 <
b1110010 2
b1001101000111 +
b1001101000111 4
b1101100101011011 ,
b1101100101011011 5
b1110001 *
b1110001 3
1)
#1310000
0)
#1315000
b1110011 <
b1110011 2
b111100010000 +
b111100010000 4
b1101011110001001 ,
b1101011110001001 5
b1110010 *
b1110010 3
1)
#1320000
0)
#1325000
b1110100 <
b1110100 2
b101010010001 +
b101010010001 4
b1101011010100001 ,
b1101011010100001 5
b1110011 *
b1110011 3
1)
#1330000
0)
#1335000
b1110101 <
b1110101 2
b11000000110 +
b11000000110 4
b1101011010101110 ,
b1101011010101110 5
b1110100 *
b1110100 3
1)
#1340000
0)
#1345000
b1110110 <
b1110110 2
b110100111 +
b110100111 4
b1101011110101011 ,
b1101011110101011 5
b1110101 *
b1110101 3
1)
#1350000
0)
#1355000
b1110111 <
b1110111 2
b1111110110101110 +
b1111110110101110 4
b1101100110000100 ,
b1101100110000100 5
b1110110 *
b1110110 3
1)
#1360000
0)
#1365000
b1111000 <
b1111000 2
b1111101001001100 +
b1111101001001100 4
b1101110000011101 ,
b1101110000011101 5
b1110111 *
b1110111 3
1)
#1370000
0)
#1375000
b1111001 <
b1111001 2
b1111011110101001 +
b1111011110101001 4
b1101111101001000 ,
b1101111101001000 5
b1111000 *
b1111000 3
1)
#1380000
0)
#1385000
b1111010 <
b1111010 2
b1111010111100011 +
b1111010111100011 4
b1110001011010011 ,
b1110001011010011 5
b1111001 *
b1111001 3
1)
#1390000
0)
#1395000
b1111011 <
b1111011 2
b1111010100001001 +
b1111010100001001 4
b1110011010000110 ,
b1110011010000110 5
b1111010 *
b1111010 3
1)
#1400000
0)
#1405000
b1111100 <
b1111100 2
b1111010100011101 +
b1111010100011101 4
b1110101000101000 ,
b1110101000101000 5
b1111011 *
b1111011 3
1)
#1410000
0)
#1415000
b1111101 <
b1111101 2
b1111011000010011 +
b1111011000010011 4
b1110110101111101 ,
b1110110101111101 5
b1111100 *
b1111100 3
1)
#1420000
0)
#1425000
b1111110 <
b1111110 2
b1111011111001110 +
b1111011111001110 4
b1111000001010001 ,
b1111000001010001 5
b1111101 *
b1111101 3
1)
#1430000
0)
#1435000
b1111111 <
b1111111 2
b1111101000101011 +
b1111101000101011 4
b1111001001111001 ,
b1111001001111001 5
b1111110 *
b1111110 3
1)
#1440000
0)
#1445000
b10000000 <
b10000000 2
b1111110011111000 +
b1111110011111000 4
b1111001111010011 ,
b1111001111010011 5
b1111111 *
b1111111 3
1)
#1450000
0)
#1455000
b10000001 <
b10000001 2
b0 +
b0 4
b1111010001001000 ,
b1111010001001000 5
b10000000 *
b10000000 3
1)
#1460000
0)
#1465000
b10000010 <
b10000010 2
b1100000111 +
b1100000111 4
b1111001111010011 ,
b1111001111010011 5
b10000001 *
b10000001 3
1)
#1470000
0)
#1475000
b10000011 <
b10000011 2
b10111010101 +
b10111010101 4
b1111001001111001 ,
b1111001001111001 5
b10000010 *
b10000010 3
1)
#1480000
0)
#1485000
b10000100 <
b10000100 2
b100000110010 +
b100000110010 4
b1111000001010001 ,
b1111000001010001 5
b10000011 *
b10000011 3
1)
#1490000
0)
#1495000
b10000101 <
b10000101 2
b100111101101 +
b100111101101 4
b1110110101111101 ,
b1110110101111101 5
b10000100 *
b10000100 3
1)
#1500000
0)
#1505000
b10000110 <
b10000110 2
b101011100011 +
b101011100011 4
b1110101000101000 ,
b1110101000101000 5
b10000101 *
b10000101 3
1)
#1510000
0)
#1515000
b10000111 <
b10000111 2
b101011110111 +
b101011110111 4
b1110011010000111 ,
b1110011010000111 5
b10000110 *
b10000110 3
1)
#1520000
0)
#1525000
b10001000 <
b10001000 2
b101000011101 +
b101000011101 4
b1110001011010100 ,
b1110001011010100 5
b10000111 *
b10000111 3
1)
#1530000
0)
#1535000
b10001001 <
b10001001 2
b100001010111 +
b100001010111 4
b1101111101001000 ,
b1101111101001000 5
b10001000 *
b10001000 3
1)
#1540000
0)
#1545000
b10001010 <
b10001010 2
b10110110100 +
b10110110100 4
b1101110000011101 ,
b1101110000011101 5
b10001001 *
b10001001 3
1)
#1550000
0)
#1555000
b10001011 <
b10001011 2
b1001010010 +
b1001010010 4
b1101100110000101 ,
b1101100110000101 5
b10001010 *
b10001010 3
1)
#1560000
0)
#1565000
b10001100 <
b10001100 2
b1111111001011001 +
b1111111001011001 4
b1101011110101011 ,
b1101011110101011 5
b10001011 *
b10001011 3
1)
#1570000
0)
#1575000
b10001101 <
b10001101 2
b1111100111111010 +
b1111100111111010 4
b1101011010101110 ,
b1101011010101110 5
b10001100 *
b10001100 3
1)
#1580000
0)
#1585000
b10001110 <
b10001110 2
b1111010101101111 +
b1111010101101111 4
b1101011010100001 ,
b1101011010100001 5
b10001101 *
b10001101 3
1)
#1590000
0)
#1595000
b10001111 <
b10001111 2
b1111000011110000 +
b1111000011110000 4
b1101011110001001 ,
b1101011110001001 5
b10001110 *
b10001110 3
1)
#1600000
0)
#1605000
b10010000 <
b10010000 2
b1110110010111001 +
b1110110010111001 4
b1101100101011011 ,
b1101100101011011 5
b10001111 *
b10001111 3
1)
#1610000
0)
#1615000
b10010001 <
b10010001 2
b1110100011111111 +
b1110100011111111 4
b1101101111111101 ,
b1101101111111101 5
b10010000 *
b10010000 3
1)
#1620000
0)
#1625000
b10010010 <
b10010010 2
b1110010111110001 +
b1110010111110001 4
b1101111101001111 ,
b1101111101001111 5
b10010001 *
b10010001 3
1)
#1630000
0)
#1635000
b10010011 <
b10010011 2
b1110001110110001 +
b1110001110110001 4
b1110001100100000 ,
b1110001100100000 5
b10010010 *
b10010010 3
1)
#1640000
0)
#1645000
b10010100 <
b10010100 2
b1110001001011001 +
b1110001001011001 4
b1110011100111011 ,
b1110011100111011 5
b10010011 *
b10010011 3
1)
#1650000
0)
#1655000
b10010101 <
b10010101 2
b1110000111110010 +
b1110000111110010 4
b1110101101100101 ,
b1110101101100101 5
b10010100 *
b10010100 3
1)
#1660000
0)
#1665000
b10010110 <
b10010110 2
b1110001001111001 +
b1110001001111001 4
b1110111101100110 ,
b1110111101100110 5
b10010101 *
b10010101 3
1)
#1670000
0)
#1675000
b10010111 <
b10010111 2
b1110001111011100 +
b1110001111011100 4
b1111001100000100 ,
b1111001100000100 5
b10010110 *
b10010110 3
1)
#1680000
0)
#1685000
b10011000 <
b10011000 2
b1110010111111011 +
b1110010111111011 4
b1111011000001110 ,
b1111011000001110 5
b10010111 *
b10010111 3
1)
#1690000
0)
#1695000
b10011001 <
b10011001 2
b1110100010101010 +
b1110100010101010 4
b1111100001011100 ,
b1111100001011100 5
b10011000 *
b10011000 3
1)
#1700000
0)
#1705000
b10011010 <
b10011010 2
b1110101110110111 +
b1110101110110111 4
b1111100111010000 ,
b1111100111010000 5
b10011001 *
b10011001 3
1)
#1710000
0)
#1715000
b10011011 <
b10011011 2
b1110111011101010 +
b1110111011101010 4
b1111101001011011 ,
b1111101001011011 5
b10011010 *
b10011010 3
1)
#1720000
0)
#1725000
b10011100 <
b10011100 2
b1111001000001010 +
b1111001000001010 4
b1111100111111100 ,
b1111100111111100 5
b10011011 *
b10011011 3
1)
#1730000
0)
#1735000
b10011101 <
b10011101 2
b1111010011011011 +
b1111010011011011 4
b1111100010111101 ,
b1111100010111101 5
b10011100 *
b10011100 3
1)
#1740000
0)
#1745000
b10011110 <
b10011110 2
b1111011100101010 +
b1111011100101010 4
b1111011010111101 ,
b1111011010111101 5
b10011101 *
b10011101 3
1)
#1750000
0)
#1755000
b10011111 <
b10011111 2
b1111100011001011 +
b1111100011001011 4
b1111010000011110 ,
b1111010000011110 5
b10011110 *
b10011110 3
1)
#1760000
0)
#1765000
b10100000 <
b10100000 2
b1111100110011100 +
b1111100110011100 4
b1111000100010011 ,
b1111000100010011 5
b10011111 *
b10011111 3
1)
#1770000
0)
#1775000
b10100001 <
b10100001 2
b1111100110000111 +
b1111100110000111 4
b1110110111010000 ,
b1110110111010000 5
b10100000 *
b10100000 3
1)
#1780000
0)
#1785000
b10100010 <
b10100010 2
b1111100010000111 +
b1111100010000111 4
b1110101010010001 ,
b1110101010010001 5
b10100001 *
b10100001 3
1)
#1790000
0)
#1795000
b10100011 <
b10100011 2
b1111011010100000 +
b1111011010100000 4
b1110011110001111 ,
b1110011110001111 5
b10100010 *
b10100010 3
1)
#1800000
0)
#1805000
b10100100 <
b10100100 2
b1111001111101010 +
b1111001111101010 4
b1110010100000001 ,
b1110010100000001 5
b10100011 *
b10100011 3
1)
#1810000
0)
#1815000
b10100101 <
b10100101 2
b1111000010000110 +
b1111000010000110 4
b1110001100011000 ,
b1110001100011000 5
b10100100 *
b10100100 3
1)
#1820000
0)
#1825000
b10100110 <
b10100110 2
b1110110010100001 +
b1110110010100001 4
b1110000111111001 ,
b1110000111111001 5
b10100101 *
b10100101 3
1)
#1830000
0)
#1835000
b10100111 <
b10100111 2
b1110100001101111 +
b1110100001101111 4
b1110000110111111 ,
b1110000110111111 5
b10100110 *
b10100110 3
1)
#1840000
0)
#1845000
b10101000 <
b10101000 2
b1110010000101010 +
b1110010000101010 4
b1110001001110110 ,
b1110001001110110 5
b10100111 *
b10100111 3
1)
#1850000
0)
#1855000
b10101001 <
b10101001 2
b1110000000001011 +
b1110000000001011 4
b1110010000011101 ,
b1110010000011101 5
b10101000 *
b10101000 3
1)
#1860000
0)
